[
  {
    "title":"News",
    "drawable":"",
    "submenu":"",
    "iap":false,
    "tabs":[
      {
        "title":"General",
        "provider":"dmcapi",
        "arguments":[
          "https://modabile.com/news/newsServe.php?"
        ]
      },
      {
        "title":"Business",
        "provider":"dmcapi",
        "arguments":[
          "https://modabile.com/news/newsServe.php?category=business"
        ]
      },
      {
        "title":"Entertainment",
        "provider":"dmcapi",
        "arguments":[
          "https://modabile.com/news/newsServe.php?category=entertainment"
        ]
      },
      {
        "title":"Health",
        "provider":"dmcapi",
        "arguments":[
          "https://modabile.com/news/newsServe.php?category=health"
        ]
      },
      {
        "title":"Science",
        "provider":"dmcapi",
        "arguments":[
          "https://modabile.com/news/newsServe.php?category=science"
        ]
      },
      {
        "title":"Sports",
        "provider":"dmcapi",
        "arguments":[
          "https://modabile.com/news/newsServe.php?category=sports"
        ]
      },
      {
        "title":"Technology",
        "provider":"dmcapi",
        "arguments":[
          "https://modabile.com/news/newsServe.php?category=technology"
        ]
      }
    ]
  },
  {
    "title":"Radio 3FM",
    "drawable":"",
    "submenu":"",
    "iap":false,
    "tabs":[
      {
        "title":"Radio 3FM",
        "provider":"radio",
        "arguments":[
          "http://yp.shoutcast.com/sbin/tunein-station.m3u?id=1586567"
        ]
      }
    ]
  },
  {
    "title":"Live TV ABC",
    "drawable":"",
    "submenu":"",
    "iap":false,
    "tabs":[
      {
        "title":"Live TV ABC",
        "provider":"stream",
        "arguments":[
          "http://www.streambox.fr/playlists/test_001/stream.m3u8"
        ]
      }
    ]
  },
  {
    "title":"RSS",
    "drawable":"",
    "submenu":"",
    "iap":false,
    "tabs":[
      {
        "title":"Feed",
        "provider":"rss",
        "arguments":[
          "http://feeds.feedburner.com/AndroidPolice"
        ]
      },
      {
        "title":"Podcast",
        "provider":"rss",
        "arguments":[
          "http://feeds.nature.com/nature/podcast/current"
        ]
      }
    ]
  },
  {
    "title":"Home",
    "drawable":"",
    "submenu":"WooCommerce",
    "iap":false,
    "tabs":[
      {
        "title":"Shop",
        "provider":"woocommerce",
        "arguments":[
          "home", "http://newwoo.azurewebsites.net/wp-content/uploads/2018/08/featured-e1534345513789.png", "http://newwoo.azurewebsites.net/wp-content/uploads/2018/08/sale-1.png"
        ]
      }
    ]
  },
  {
    "title":"Orders",
    "drawable":"",
    "submenu":"WooCommerce",
    "iap":false,
    "tabs":[
      {
        "title":"Orders",
        "provider":"woocommerce",
        "arguments":[
          "orders"
        ]
      }
    ]
  },
  {
    "title":"Tumblr",
    "drawable":"",
    "submenu":"Social Media",
    "iap":false,
    "tabs":[
      {
        "title":"Tumblr",
        "provider":"tumblr",
        "arguments":[
          "androidbackgrounds"
        ]
      }
    ]
  },
  {
    "title":"Flickr",
    "drawable":"",
    "submenu":"Social Media",
    "iap":false,
    "tabs":[
      {
        "title":"Flickr",
        "provider":"flickr",
        "arguments":[
          "72157657805551378",
          "photoset"
        ]
      }
    ]
  },
  {
    "title":"Streaming Audio",
    "drawable":"",
    "submenu":"Social Media",
    "iap":false,
    "tabs":[
      {
        "title":"SoundCloud",
        "provider":"soundcloud",
        "arguments":[
          "212094702", "playlist"
        ]
      },
      {
        "title":"Wordpress",
        "provider":"wordpress_audio",
        "arguments":[
          "musicservlet.azurewebsites.net", ""
        ]
      }
    ]
  },
  {
    "title":"Twitter",
    "drawable":"",
    "submenu":"Social Media",
    "iap":false,
    "tabs":[
      {
        "title":"Twitter",
        "provider":"twitter",
        "arguments":[
          "Android"
        ]
      }
    ]
  },
  {
    "title":"Instagram",
    "drawable":"",
    "submenu":"Social Media",
    "iap":false,
    "tabs":[
      {
        "title":"Instagram",
        "provider":"instagram",
        "arguments":[
          "17841402834084629"
        ]
      }
    ]
  },
  {
    "title":"Facebook",
    "drawable":"",
    "submenu":"Social Media",
    "iap":false,
    "tabs":[
      {
        "title":"Facebook",
        "provider":"facebook",
        "arguments":[
          "307700939773381"
        ]
      }
    ]
  },
  {
    "title":"Youtube",
    "drawable":"",
    "submenu":"Social Media",
    "iap":false,
    "tabs":[
      {
        "title":"Youtube Live",
        "provider":"youtube",
        "arguments":[
          "UCoMdktPbSTixAyNGwb-UYkQ",
          "live"
        ]
      },
      {
        "title":"Youtube Playlist",
        "provider":"youtube",
        "arguments":[
          "UU7V6hW6xqPAiUfataAZZtWA",
          "playlist"
        ]
      },
      {
        "title":"Youtube Channel",
        "provider":"youtube",
        "arguments":[
          "UCoMdktPbSTixAyNGwb-UYkQ",
          "channel"
        ]
      }
    ]
  },
  {
    "title":"Pinterest",
    "drawable":"",
    "submenu":"Social Media",
    "iap":false,
    "tabs":[
      {
        "title":"Pinterest",
        "provider":"pinterest",
        "arguments":[
          "515451188540423446"
        ]
      }
    ]
  },
  {
    "title":"WebView",
    "drawable":"",
    "submenu":"Other",
    "iap":false,
    "tabs":[
      {
        "title":"WebView",
        "provider":"webview",
        "arguments":[
          "http://www.google.com"
        ]
      }
    ]
  },
  {
    "title":"Categories",
    "drawable":"",
    "submenu":"Other",
    "iap":false,
    "tabs":[
      {
        "title":"Categories",
        "provider":"overview",
        "arguments":[
          "overview.json"
        ]
      }
    ]
  },
  {
    "title":"Wordpress Other",
    "drawable":"",
    "submenu":"Other",
    "iap":false,
    "tabs":[
      {
        "title":"WP JSON & Disqus",
        "provider":"wordpress",
        "arguments":[
          "http://androidpolice.com",
          "",
          "http://androidpolice.disqus.com/;androidpolice;%d http://www.androidpolice.com/?p=%d"
        ]
      },
      {
        "title":"WP REST",
        "provider":"wordpress",
        "arguments":[
          "https://wordpress.org/news/wp-json/wp/v2/",
          ""
        ]
      }
    ]
  },
  {
    "title":"Location",
    "drawable":"",
    "submenu":"Other",
    "iap":false,
    "tabs":[
      {
        "title":"",
        "provider":"maps",
        "arguments":[
          "https://www.mapbox.com/help/data/stations.geojson"
        ]
      }
    ]
  },
  {
    "title":"Custom",
    "drawable":"",
    "submenu":"Other",
    "iap":false,
    "tabs":[
      {
        "title":"",
        "provider":"custom",
        "arguments":[
          "com.sherdle.universal.SettingsFragment", "fragment"
        ]
      }
    ]
  }
]
